80
10000000000000000000000000000000000000000000000000000000000000000000001000000001
10000000000000000000000000000000000000000000000000000000000000000000001000000001
1000020000000000000000000000000000000000000000000000000000000000000000100G000001
10011111102011111111000000000000000000000000000000111110201110011111111111110001
10000000000000000000000000000000000000000000000000000000001110000000000000000001
10000000000000000000000000000000000000000000000000000000001110000000000000000001
10000000000000000000001111100000000020000001111110000000001111111111111111111111
10000000000000000000000000000000000000000001111111111111111111111111111111111111
10000000000000000000000000000000000000000001111111111111111111111111111111111111
10000000000000200000000000000000000000000001111111111111111111111111111111111111
10000000000000000000000000111111100000011111111111111111111111111111111111111111
10000000000000000000000000111111100000011111111111111111111111111111111111111111
10000000000111111100000111111111111111111111111111111111111111111111111111111111
10000B00000111111100000111111111111111111111111111111111111111111111111111111111
11111111111111111111111111111111111111111111111111111111111111111111111111111111
P The Professor: How are things going Ballz?
B Ballz: I'm doing just fine, prof!
P The Professor: I'm glad to hear that. As you have been out of town for a while I thought I'd update you on some current news events.
B Ballz: Okay...
P The Professor: The BBC said earlier today that a tsunami hit the Solomon Islands after a strong sea quake, with at least 12 people reported dead!
C The Colonel: What are you doing Professor?!
P The Professor: Updating Ballz with current news.
C The Colonel: Well stop bothering Ballz with unimportant events! He has a mission to finish!
P The Professor: ... sorry, sir...
C The Colonel: Ballz, go and kill everything that moves!
B Ballz: Consider it done colonel!