20
11111111111111000001
1B000000000000000001
11111011111999999001
11000000001000000001
10011111101000000001
10000111100000999991
10000010010000000001
10000010000000000001
19010116666111111101
19910011111000000101
19911011110020020101
12221000000000000001
12221199999901111101
122200000000000000G1
11111111616111111111